%YAML 1.1
%TAG !u! tag:unity3d.com,2011:
--- !u!21 &2100000
Material:
  serializedVersion: 6
  m_ObjectHideFlags: 0
  m_CorrespondingSourceObject: {fileID: 0}
  m_PrefabInstance: {fileID: 0}
  m_PrefabAsset: {fileID: 0}
  m_Name: Shader Graphs_Flames shader
  m_Shader: {fileID: -6465566751694194690, guid: ebaa32873c36e5147a0fd55f2080c6fb,
    type: 3}
  m_ShaderKeywords: 
  m_LightmapFlags: 4
  m_EnableInstancingVariants: 0
  m_DoubleSidedGI: 0
  m_CustomRenderQueue: -1
  stringTagMap: {}
  disabledShaderPasses: []
  m_SavedProperties:
    serializedVersion: 3
    m_TexEnvs:
    - Texture2D_9A7E097B:
        m_Texture: {fileID: 2800000, guid: c700614e02cc943418bac580eed23f1c, type: 3}
        m_Scale: {x: 1, y: 1}
        m_Offset: {x: 0, y: 0}
    m_Floats:
    - Vector1_492B7608: 0.2
    - Vector1_9E8CDA65: 6.25
    - Vector1_A91510C4: 0.98
    - Vector1_F2A630D1: 0.1
    m_Colors:
    - Color_565E89A7: {r: 4.208342, g: 0.9510378, b: 0.427967, a: 1}
    - Vector2_3D3D57CF: {r: 0, g: -0.3, b: 0, a: 0}
    - Vector2_5FFCA31B: {r: -0.1, g: -0.5, b: 0, a: 0}
